…
``` r
site_list <- site_list %>%
  filter(site_id == 'fcre')

targets <- targets %>%
  filter(site_id == 'fcre')

targets |> distinct(variable)
```

    ## # A tibble: 33 × 1
    ##    variable             
    ##    <chr>                
    ##  1 Temp_C_mean          
    ##  2 SpCond_uScm_mean     
    ##  3 Chla_ugL_mean        
    ##  4 fDOM_QSU_mean        
    ##  5 Turbidity_FNU_mean   
    ##  6 Bloom_binary_mean    
    ##  7 DO_mgL_mean          
    ##  8 DOsat_percent_mean   
    ##  9 GreenAlgae_ugL_sample
    ## 10 Bluegreens_ugL_sample
    ## # ℹ 23 more rows
…
